Sentiment Analysis on Obama and Trump Tweets – Mary W
…
obama_and_trump_names <- obama_and_trump |>
  semi_join(name_list) |>
  rename(name = word) |>
  filter(name != "america", name != "china", name != "florida")

Joining with `by = join_by(word)`

obama_and_trump_names |> 
  group_by(president, name) |>
  count() |>
  arrange(desc(n)) |>
  pivot_wider(names_from = president, values_from = n ) 

# A tibble: 194 × 3
# Groups:   name [194]
   name   Trump Obama
   <chr>  <int> <int>
 1 love     407    77
 2 bill     358   122
 3 mike     214     2
 4 major    206    23
 5 hope     205    27
 6 guy      184     4
 7 chance   124   172
 8 chuck    132     4
 9 mark     122    16
10 page     101    19
# ℹ 184 more rows
…
